HLTControlFlowMgr                      INFO Start initialization
HLTControlFlowMgr                      INFO Will not use an EventSelector.
RootIOAlg                              INFO DATAFILE='root://eoslhcb.cern.ch//eos/lhcb/wg/rta/samples/mc/Jira_LHCBGAUSS-2635/Minbias_MagDown_Boole_lhcbhead3379_dddb-20220705_sim-20220705-vc-md100_lumi0.xdigi'
HLTControlFlowMgr                      INFO Concurrency level information:
HLTControlFlowMgr                      INFO  o Number of events slots: 1
HLTControlFlowMgr                      INFO  o TBB thread pool size:  'ThreadPoolSize':1
ApplicationMgr                         INFO Application Manager Initialized successfully
ApplicationMgr                         INFO Application Manager Started successfully
HLTControlFlowMgr                      INFO Will measure time between events 0 and 0 (stop might be some events later)
HLTControlFlowMgr                      INFO Starting loop on events
DeviceFTGeometry                       INFO Conditions DB is compatible with FT bank version 7 and 8.
RootIOAlg                           SUCCESS Reading Event record 1 within root://eoslhcb.cern.ch//eos/lhcb/wg/rta/samples/mc/Jira_LHCBGAUSS-2635/Minbias_MagDown_Boole_lhcbhead3379_dddb-20220705_sim-20220705-vc-md100_lumi0.xdigi
ApplicationMgr                         INFO Application Manager Stopped successfully
HLTControlFlowMgr                      INFO
HLTControlFlowMgr                      INFO StateTree: CFNode   #executed  #passed
NONLAZY_OR: allen_reconstruction               #=1       Sum=1           Eff=|( 100.0000 +- 0.00000 )%|
 NONLAZY_OR: allen_non_event_data              #=1       Sum=1           Eff=|( 100.0000 +- 0.00000 )%|
  DumpBeamline/DeviceBeamline                  #=1       Sum=1           Eff=|( 100.0000 +- 0.00000 )%|
  DumpVPGeometry/DeviceVPGeometry              #=1       Sum=1           Eff=|( 100.0000 +- 0.00000 )%|
  DumpUTGeometry/DeviceUTGeometry              #=1       Sum=1           Eff=|( 100.0000 +- 0.00000 )%|
  DumpUTLookupTables/DeviceUTLookupTables      #=1       Sum=1           Eff=|( 100.0000 +- 0.00000 )%|
  DumpCaloGeometry/DeviceCaloGeometry          #=1       Sum=1           Eff=|( 100.0000 +- 0.00000 )%|
  DumpMagneticField/DeviceMagneticField        #=1       Sum=1           Eff=|( 100.0000 +- 0.00000 )%|
  DumpFTGeometry/DeviceFTGeometry              #=1       Sum=1           Eff=|( 100.0000 +- 0.00000 )%|
  DumpMuonGeometry/DeviceMuonGeometry          #=1       Sum=1           Eff=|( 100.0000 +- 0.00000 )%|
  DumpMuonTable/DeviceMuonTable                #=1       Sum=1           Eff=|( 100.0000 +- 0.00000 )%|
  DumpRichPDMDBMapping/DeviceRichPDMDBMapping  #=1       Sum=1           Eff=|( 100.0000 +- 0.00000 )%|
  DumpRichCableMapping/DeviceRichCableMapping  #=1       Sum=1           Eff=|( 100.0000 +- 0.00000 )%|
 NONLAZY_OR: dump_geometry                     #=1       Sum=1           Eff=|( 100.0000 +- 0.00000 )%|
  createODIN/Decode_ODIN                       #=1       Sum=1           Eff=|( 100.0000 +- 0.00000 )%|
HLTControlFlowMgr                      INFO Histograms converted successfully according to request.
ApplicationMgr                         INFO Application Manager Finalized successfully
ApplicationMgr                         INFO Application Manager Terminated successfully
DeviceBeamline                         INFO Number of counters : 1
 |    Counter                                      |     #     |    sum     | mean/eff^* | rms/err^*  |     min     |     max     |
 | "BytesWritten_Beamline"                         |        40 |
DeviceCaloGeometry                     INFO Number of counters : 1
 |    Counter                                      |     #     |    sum     | mean/eff^* | rms/err^*  |     min     |     max     |
 | "BytesWritten_EcalGeometry"                     |    202524 |
DeviceFTGeometry                       INFO Number of counters : 1
 |    Counter                                      |     #     |    sum     | mean/eff^* | rms/err^*  |     min     |     max     |
 | "BytesWritten_SciFiGeometry"                    |   3249928 |
DeviceMagneticField                    INFO Number of counters : 1
 |    Counter                                      |     #     |    sum     | mean/eff^* | rms/err^*  |     min     |     max     |
 | "BytesWritten_MagneticField"                    |         4 |
DeviceMuonGeometry                     INFO Number of counters : 1
 |    Counter                                      |     #     |    sum     | mean/eff^* | rms/err^*  |     min     |     max     |
 | "BytesWritten_MuonGeometry"                     |    211468 |
DeviceMuonTable                        INFO Number of counters : 1
 |    Counter                                      |     #     |    sum     | mean/eff^* | rms/err^*  |     min     |     max     |
 | "BytesWritten_MuonLookupTables"                 |   1052980 |
DeviceRichCableMapping                 INFO Number of counters : 1
 |    Counter                                      |     #     |    sum     | mean/eff^* | rms/err^*  |     min     |     max     |
 | "BytesWritten_RichCableMapping"                 |    469512 |
DeviceRichPDMDBMapping                 INFO Number of counters : 1
 |    Counter                                      |     #     |    sum     | mean/eff^* | rms/err^*  |     min     |     max     |
 | "BytesWritten_RichPDMDBMapping"                 |      9296 |
DeviceUTGeometry                       INFO Number of counters : 2
 |    Counter                                      |     #     |    sum     | mean/eff^* | rms/err^*  |     min     |     max     |
 | "BytesWritten_UTBoards"                         |     84688 |
 | "BytesWritten_UTGeometry"                       |     46116 |
DeviceUTLookupTables                   INFO Number of counters : 1
 |    Counter                                      |     #     |    sum     | mean/eff^* | rms/err^*  |     min     |     max     |
 | "BytesWritten_UTLookupTables"                   |     15544 |
DeviceVPGeometry                       INFO Number of counters : 1
 |    Counter                                      |     #     |    sum     | mean/eff^* | rms/err^*  |     min     |     max     |
 | "BytesWritten_VeloGeometry"                     |     16376 |
HLTControlFlowMgr                      INFO Number of counters : 1
 |    Counter                                      |     #     |    sum     | mean/eff^* | rms/err^*  |     min     |     max     |
 | "Processed events"                              |         1 |
